{
	"action": "message",
	"verifyString": "yourverifystring",
	"payload": {
		"message": {
			"threadID": "threadid",
			"userId": "username",
			"text": "Do you want to subscribe for the service ?",
			"time": 1480037596179
		}
	}
}