{
	"action": "message",
	"verifyString": "1234",
	"payload": {
		"message": {
			"threadID": "threadid",
			"userId": "username",
			"isRichMedia": true,
			"time": 1515564288861,
			"conversationUUID": "7352B32A-2834-4CDD-82E7-35EEE4C4ABDC",
			"messageID": "A25272A6-4136-474C-9C6A-7DD9D520FFB8",
			"mediaData": {
				"element": {
					"attachment": {
						"payload": {
							"elements": [
								{
									"buttons": [
										{
											"payload": "People Great Life Reminded",
											"title": "People Great Life Reminded",
											"type": "postback"
										}
									],
									"image_url": "https://pbs.twimg.com/media/DPmtQC2XcAATzmS.jpg",
									"subtitle": "$10",
									"title": "People Great Life Reminded"
								},
								{
									"buttons": [
										{
											"payload": "Time Nylonkong",
											"title": "Time Nylonkong",
											"type": "postback"
										}
									],
									"image_url": "https://www.synapsegroupinc.com/wp-content/uploads/2016/01/Nylonkong-image.jpg",
									"subtitle": "$5",
									"title": "Time Nylonkong"
								},
								{
									"buttons": [
										{
											"payload": "Native Adventuring",
											"title": "Native Adventuring",
											"type": "postback"
										}
									],
									"image_url": "https://www.synapsegroupinc.com/wp-content/uploads/2016/02/native_ad-414x272.jpg",
									"subtitle": "$20 per year",
									"title": "Native Adventuring"
								},
								{
									"buttons": [
										{
											"payload": "none",
											"title": "None",
											"type": "postback"
										}
									],
									"image_url": "http://www.designsbybethann.com/pictures/Flowers/none%20flowers.jpg",
									"subtitle": "You want to cancel the offer.",
									"title": "None"
								}
							],
							"template_type": "generic"
						},
						"type": "template"
					}
				},
				"type": "FACEBOOK_MEDIA"
			},
			"runtimeCTX": null
		}
	}
}