{
	"action": "message",
	"verifyString": "1234",
	"payload": {
		"message": {
			"threadID": "threadid",
			"userId": "username",
			"text": "Thanx! Would u mind providing the last 4 digits of your credit card? e.g. 1234",
			"time": 1515564135243,
			"conversationUUID": "934E133E-A68D-4144-83ED-AA430B2B535A",
			"messageID": "335327C3-A046-490A-BBC5-785AB15CE426",
			"runtimeCTX": null
		}
	}
}